module docmans

go 1.12

require (
	github.com/allegro/bigcache v1.2.1 // indirect
	github.com/apilayer/freegeoip v3.5.0+incompatible // indirect
	github.com/aristanetworks/goarista v0.0.0-20190912214011-b54698eaaca6 // indirect
	github.com/btcsuite/btcd v0.0.0-20190824003749-130ea5bddde3 // indirect
	github.com/cespare/cp v1.1.1 // indirect
	github.com/deckarep/golang-set v1.7.1 // indirect
	github.com/dgrijalva/jwt-go v3.2.0+incompatible
	github.com/docker/docker v1.13.1 // indirect
	github.com/edsrzf/mmap-go v1.0.0 // indirect
	github.com/elastic/gosigar v0.10.5 // indirect
	github.com/ethereum/go-ethereum v1.9.3
	github.com/fjl/memsize v0.0.0-20190710130421-bcb5799ab5e5 // indirect
	github.com/gballet/go-libpcsclite v0.0.0-20190607065134-2772fd86a8ff // indirect
	github.com/go-redis/redis v6.15.5+incompatible
	github.com/gorilla/mux v1.7.3
	github.com/gorilla/websocket v1.4.1 // indirect
	github.com/graph-gophers/graphql-go v0.0.0-20190902214650-641ae197eec7 // indirect
	github.com/hashicorp/golang-lru v0.5.3 // indirect
	github.com/howeyc/fsnotify v0.9.0 // indirect
	github.com/huin/goupnp v1.0.0 // indirect
	github.com/influxdata/influxdb v1.7.8 // indirect
	github.com/ipfs/go-ipfs-api v0.0.2
	github.com/jackpal/go-nat-pmp v1.0.1 // indirect
	github.com/joho/godotenv v1.3.0
	github.com/karalabe/usb v0.0.0-20190819132248-550797b1cad8 // indirect
	github.com/mattn/go-colorable v0.1.2 // indirect
	github.com/mattn/go-isatty v0.0.9 // indirect
	github.com/mattn/go-runewidth v0.0.4 // indirect
	github.com/mohae/deepcopy v0.0.0-20170929034955-c48cc78d4826 // indirect
	github.com/olekukonko/tablewriter v0.0.1 // indirect
	github.com/oschwald/maxminddb-golang v1.5.0 // indirect
	github.com/pborman/uuid v1.2.0 // indirect
	github.com/pkg/errors v0.8.1
	github.com/prometheus/tsdb v0.10.0 // indirect
	github.com/rjeczalik/notify v0.9.2 // indirect
	github.com/rs/cors v1.7.0 // indirect
	github.com/status-im/keycard-go v0.0.0-20190424133014-d95853db0f48 // indirect
	github.com/steakknife/bloomfilter v0.0.0-20180922174646-6819c0d2a570 // indirect
	github.com/steakknife/hamming v0.0.0-20180906055917-c99c65617cd3 // indirect
	github.com/syndtr/goleveldb v1.0.0 // indirect
	github.com/tyler-smith/go-bip39 v1.0.2 // indirect
	github.com/wsddn/go-ecdh v0.0.0-20161211032359-48726bab9208 // indirect
	golang.org/x/crypto v0.0.0-20190829043050-9756ffdc2472
	gopkg.in/natefinch/npipe.v2 v2.0.0-20160621034901-c1b8fa8bdcce // indirect
	gopkg.in/olebedev/go-duktape.v3 v3.0.0-20190709231704-1e4459ed25ff // indirect
)
